{
  "name": "appUser",
  "base": "PersistedModel",
  "idInjection": true,
  "options": {
    "validateUpsert": true
  },
  "hidden": [
    "password",
    "verificationToken"
  ],
  "protected": [
    "password",
    "realm"
  ],
  "properties": {
    "_id": {
      "type": "string",
      "id": true,
      "description": "in database term, ID properties are primary key column",
      "defaultFn": "uuid"
    },
    "type": {
      "type": "object",
      "postgresql": {
        "dataType": "json"
      }
    },
    "apps": {
      "type": [
        "app"
      ],
      "required": false
    },
    "realm": {
      "type": "string"
    },
    "email": {
      "type": "string",
      "required": true,
      "default": "unknown@gmail.com"
    },
    "emailVerified": {
      "type": "boolean",
      "default": false
    },
    "required": {
      "type": "object",
      "postgresql": {
        "dataType": "json"
      }
    },
    "userName": {
      "type": "string",
      "required": true,
      "min": 6,
      "max": 24
    },
    "name": {
      "type": "userName",
      "required": true
    },
    "career": {
      "type": "string"
    },
    "jobTitle": {
      "type": "string"
    },
    "company": {
      "type": "string"
    },
    "gender": {
      "type": "string"
    },
    "ethnicity": {
      "type": "string"
    },
    "origin": {
      "type": "string"
    },
    "addresses": {
      "type": [
        "lineAddress"
      ],
      "required": true
    },
    "password": {
      "type": "string",
      "required": true
    },
    "questions": {
      "type": "object",
      "postgresql": {
        "dataType": "json"
      }
    },
    "answers": {
      "type": "object",
      "postgresql": {
        "dataType": "json"
      }
    },
    "birthDate": {
      "type": "date"
    },
    "phoneNumber1": {
      "type": "string"
    },
    "phoneNumber2": {
      "type": "string"
    },
    "createdAt": {
      "type": "date",
      "defaultFn": "now"
    },
    "updatedAt": {
      "type": "date",
      "defaultFn": "now"
    },
    "lastSeenAt": {
      "type": "date",
      "defaultFn": "now"
    }
  },
  "validations": [],
  "relations": {

  },
  "acls": [],
  "methods": {}
}
