{
  "name": "favoriteFoodtrucks",
  "base": "Model",
  "idInjection": true,
  "options": {
    "validateUpsert": true
  },
  "properties": {},
  "validations": [],
  "relations": {
    "businessUnitId": {
      "type": "hasMany",
      "model": "businessUnit",
      "foreignKey": "businessUnitId"
    }
  },
  "acls": [],
  "methods": {}
}
