{
  "name": "foodieAllergence",
  "base": "Model",
  "idInjection": true,
  "options": {
    "validateUpsert": true
  },
  "properties": {
    "_id": {
      "type": "string",
      "id": true,
      "defaultFn": "uuid"
    },
    "foodieIngredientId": {
      "type": "string",
      "id": true,
      "defaultFn": "uuid"
    },
    "type": {
      "type": "string"
    }
  },
  "validations": [],
  "relations": {},
  "acls": [],
  "methods": {}
}
